module client

go 1.20

require (
	github.com/go-playground/validator/v10 v10.15.4
	github.com/gofiber/fiber/v2 v2.49.2
	google.golang.org/grpc v1.58.2
	google.golang.org/protobuf v1.31.0
)

require (
	github.com/andybalholm/brotli v1.0.5 // indirect
	github.com/gabriel-vasile/mimetype v1.4.2 // indirect
	github.com/go-playground/locales v0.14.1 // indirect
	github.com/go-playground/universal-translator v0.18.1 // indirect
	github.com/golang/protobuf v1.5.3 // indirect
	github.com/google/uuid v1.3.1 // indirect
	github.com/klauspost/compress v1.16.7 // indirect
	github.com/leodido/go-urn v1.2.4 // indirect
	github.com/mattn/go-colorable v0.1.13 // indirect
	github.com/mattn/go-isatty v0.0.19 // indirect
	github.com/mattn/go-runewidth v0.0.15 // indirect
	github.com/rivo/uniseg v0.2.0 // indirect
	github.com/valyala/bytebufferpool v1.0.0 // indirect
	github.com/valyala/fasthttp v1.49.0 // indirect
	github.com/valyala/tcplisten v1.0.0 // indirect
	golang.org/x/crypto v0.11.0 // indirect
	golang.org/x/net v0.12.0 // indirect
	golang.org/x/sys v0.12.0 // indirect
	golang.org/x/text v0.11.0 // indirect
	google.golang.org/genproto/googleapis/rpc v0.0.0-20230711160842-782d3b101e98 // indirect
)
